{
    "artists": {
        "href": "https://api.spotify.com/v1/search?offset=0&limit=20&query=like%20a%20tattoo&type=artist&locale=en-US,en;q%3D0.9",
        "limit": 20,
        "next": "https://api.spotify.com/v1/search?offset=20&limit=20&query=like%20a%20tattoo&type=artist&locale=en-US,en;q%3D0.9",
        "offset": 0,
        "previous": null,
        "total": 73,
        "items": [
            {
                "external_urls": {
                    "spotify": "https://open.spotify.com/artist/47zz7sob9NUcODy0BTDvKx"
                },
                "followers": {
                    "href": null,
                    "total": 4920545
                },
                "genres": [],
                "href": "https://api.spotify.com/v1/artists/47zz7sob9NUcODy0BTDvKx",
                "id": "47zz7sob9NUcODy0BTDvKx",
                "images": [
                    {
                        "url": "https://i.scdn.co/image/ab6761610000e5eb92883b0e094a36d2f43ad284",
                        "height": 640,
                        "width": 640
                    },
                    {
                        "url": "https://i.scdn.co/image/ab6761610000517492883b0e094a36d2f43ad284",
                        "height": 320,
                        "width": 320
                    },
                    {
                        "url": "https://i.scdn.co/image/ab6761610000f17892883b0e094a36d2f43ad284",
                        "height": 160,
                        "width": 160
                    }
                ],
                "name": "Sade",
                "popularity": 80,
                "type": "artist",
                "uri": "spotify:artist:47zz7sob9NUcODy0BTDvKx"
            },
            {
                "external_urls": {
                    "spotify": "https://open.spotify.com/artist/1U1el3k54VvEUzo3ybLPlM"
                },
                "followers": {
                    "href": null,
                    "total": 9174456
                },
                "genres": [],
                "href": "https://api.spotify.com/v1/artists/1U1el3k54VvEUzo3ybLPlM",
                "id": "1U1el3k54VvEUzo3ybLPlM",
                "images": [
                    {
                        "url": "https://i.scdn.co/image/ab6761610000e5eb6a5bff9f9278d4eea13bb67e",
                        "height": 640,
                        "width": 640
                    },
                    {
                        "url": "https://i.scdn.co/image/ab676161000051746a5bff9f9278d4eea13bb67e",
                        "height": 320,
                        "width": 320
                    },
                    {
                        "url": "https://i.scdn.co/image/ab6761610000f1786a5bff9f9278d4eea13bb67e",
                        "height": 160,
                        "width": 160
                    }
                ],
                "name": "Kali Uchis",
                "popularity": 87,
                "type": "artist",
                "uri": "spotify:artist:1U1el3k54VvEUzo3ybLPlM"
            },
            {
                "external_urls": {
                    "spotify": "https://open.spotify.com/artist/5y8tKLUfMvliMe8IKamR32"
                },
                "followers": {
                    "href": null,
                    "total": 4420331
                },
                "genres": [],
                "href": "https://api.spotify.com/v1/artists/5y8tKLUfMvliMe8IKamR32",
                "id": "5y8tKLUfMvliMe8IKamR32",
                "images": [
                    {
                        "url": "https://i.scdn.co/image/ab6761610000e5ebee632cde061121a5fe48c1d6",
                        "height": 640,
                        "width": 640
                    },
                    {
                        "url": "https://i.scdn.co/image/ab67616100005174ee632cde061121a5fe48c1d6",
                        "height": 320,
                        "width": 320
                    },
                    {
                        "url": "https://i.scdn.co/image/ab6761610000f178ee632cde061121a5fe48c1d6",
                        "height": 160,
                        "width": 160
                    }
                ],
                "name": "d4vd",
                "popularity": 84,
                "type": "artist",
                "uri": "spotify:artist:5y8tKLUfMvliMe8IKamR32"
            },
            {
                "external_urls": {
                    "spotify": "https://open.spotify.com/artist/3MZsBdqDrRTJihTHQrO6Dq"
                },
                "followers": {
                    "href": null,
                    "total": 10330065
                },
                "genres": [],
                "href": "https://api.spotify.com/v1/artists/3MZsBdqDrRTJihTHQrO6Dq",
                "id": "3MZsBdqDrRTJihTHQrO6Dq",
                "images": [
                    {
                        "url": "https://i.scdn.co/image/ab6761610000e5eb4111c95b5f430c3265c7304b",
                        "height": 640,
                        "width": 640
                    },
                    {
                        "url": "https://i.scdn.co/image/ab676161000051744111c95b5f430c3265c7304b",
                        "height": 320,
                        "width": 320
                    },
                    {
                        "url": "https://i.scdn.co/image/ab6761610000f1784111c95b5f430c3265c7304b",
                        "height": 160,
                        "width": 160
                    }
                ],
                "name": "Joji",
                "popularity": 80,
                "type": "artist",
                "uri": "spotify:artist:3MZsBdqDrRTJihTHQrO6Dq"
            },
            {
                "external_urls": {
                    "spotify": "https://open.spotify.com/artist/21UPYSRWFKwtqvSAnFnSvS"
                },
                "followers": {
                    "href": null,
                    "total": 556152
                },
                "genres": [
                    "alté",
                    "afrobeats",
                    "afro r&b"
                ],
                "href": "https://api.spotify.com/v1/artists/21UPYSRWFKwtqvSAnFnSvS",
                "id": "21UPYSRWFKwtqvSAnFnSvS",
                "images": [
                    {
                        "url": "https://i.scdn.co/image/ab6761610000e5eb82d2f8ad2b13647357e18582",
                        "height": 640,
                        "width": 640
                    },
                    {
                        "url": "https://i.scdn.co/image/ab6761610000517482d2f8ad2b13647357e18582",
                        "height": 320,
                        "width": 320
                    },
                    {
                        "url": "https://i.scdn.co/image/ab6761610000f17882d2f8ad2b13647357e18582",
                        "height": 160,
                        "width": 160
                    }
                ],
                "name": "Amaarae",
                "popularity": 70,
                "type": "artist",
                "uri": "spotify:artist:21UPYSRWFKwtqvSAnFnSvS"
            },
            {
                "external_urls": {
                    "spotify": "https://open.spotify.com/artist/2Q3eZMfDQgT8MhPowKFXYO"
                },
                "followers": {
                    "href": null,
                    "total": 1042745
                },
                "genres": [],
                "href": "https://api.spotify.com/v1/artists/2Q3eZMfDQgT8MhPowKFXYO",
                "id": "2Q3eZMfDQgT8MhPowKFXYO",
                "images": [
                    {
                        "url": "https://i.scdn.co/image/ab6761610000e5ebc8bb15d091287d6ce663d430",
                        "height": 640,
                        "width": 640
                    },
                    {
                        "url": "https://i.scdn.co/image/ab67616100005174c8bb15d091287d6ce663d430",
                        "height": 320,
                        "width": 320
                    },
                    {
                        "url": "https://i.scdn.co/image/ab6761610000f178c8bb15d091287d6ce663d430",
                        "height": 160,
                        "width": 160
                    }
                ],
                "name": "t.A.T.u.",
                "popularity": 67,
                "type": "artist",
                "uri": "spotify:artist:2Q3eZMfDQgT8MhPowKFXYO"
            },
            {
                "external_urls": {
                    "spotify": "https://open.spotify.com/artist/1pBLC0qVRTB5zVMuteQ9jJ"
                },
                "followers": {
                    "href": null,
                    "total": 519181
                },
                "genres": [],
                "href": "https://api.spotify.com/v1/artists/1pBLC0qVRTB5zVMuteQ9jJ",
                "id": "1pBLC0qVRTB5zVMuteQ9jJ",
                "images": [
                    {
                        "url": "https://i.scdn.co/image/ab6761610000e5ebc2fb4b8e035fbdad27da865f",
                        "height": 640,
                        "width": 640
                    },
                    {
                        "url": "https://i.scdn.co/image/ab67616100005174c2fb4b8e035fbdad27da865f",
                        "height": 320,
                        "width": 320
                    },
                    {
                        "url": "https://i.scdn.co/image/ab6761610000f178c2fb4b8e035fbdad27da865f",
                        "height": 160,
                        "width": 160
                    }
                ],
                "name": "Lily-Rose Depp",
                "popularity": 77,
                "type": "artist",
                "uri": "spotify:artist:1pBLC0qVRTB5zVMuteQ9jJ"
            },
            {
                "external_urls": {
                    "spotify": "https://open.spotify.com/artist/4SQdUpG4f7UbkJG3cJ2Iyj"
                },
                "followers": {
                    "href": null,
                    "total": 636923
                },
                "genres": [
                    "neoperreo",
                    "experimental",
                    "art pop",
                    "hyperpop"
                ],
                "href": "https://api.spotify.com/v1/artists/4SQdUpG4f7UbkJG3cJ2Iyj",
                "id": "4SQdUpG4f7UbkJG3cJ2Iyj",
                "images": [
                    {
                        "url": "https://i.scdn.co/image/ab6761610000e5ebb7054b0057443749b505dbdd",
                        "height": 640,
                        "width": 640
                    },
                    {
                        "url": "https://i.scdn.co/image/ab67616100005174b7054b0057443749b505dbdd",
                        "height": 320,
                        "width": 320
                    },
                    {
                        "url": "https://i.scdn.co/image/ab6761610000f178b7054b0057443749b505dbdd",
                        "height": 160,
                        "width": 160
                    }
                ],
                "name": "Arca",
                "popularity": 62,
                "type": "artist",
                "uri": "spotify:artist:4SQdUpG4f7UbkJG3cJ2Iyj"
            },
            {
                "external_urls": {
                    "spotify": "https://open.spotify.com/artist/7z3W8OunO3RH0quodR8Zsu"
                },
                "followers": {
                    "href": null,
                    "total": 5645
                },
                "genres": [],
                "href": "https://api.spotify.com/v1/artists/7z3W8OunO3RH0quodR8Zsu",
                "id": "7z3W8OunO3RH0quodR8Zsu",
                "images": [
                    {
                        "url": "https://i.scdn.co/image/ab6761610000e5eb66e0178c50e24250e3ea52f4",
                        "height": 640,
                        "width": 640
                    },
                    {
                        "url": "https://i.scdn.co/image/ab6761610000517466e0178c50e24250e3ea52f4",
                        "height": 320,
                        "width": 320
                    },
                    {
                        "url": "https://i.scdn.co/image/ab6761610000f17866e0178c50e24250e3ea52f4",
                        "height": 160,
                        "width": 160
                    }
                ],
                "name": "Saso",
                "popularity": 30,
                "type": "artist",
                "uri": "spotify:artist:7z3W8OunO3RH0quodR8Zsu"
            },
            {
                "external_urls": {
                    "spotify": "https://open.spotify.com/artist/6vOfSVXZAWvuZliupPw4Wm"
                },
                "followers": {
                    "href": null,
                    "total": 9103
                },
                "genres": [
                    "neoperreo"
                ],
                "href": "https://api.spotify.com/v1/artists/6vOfSVXZAWvuZliupPw4Wm",
                "id": "6vOfSVXZAWvuZliupPw4Wm",
                "images": [
                    {
                        "url": "https://i.scdn.co/image/ab6761610000e5eb5f7af4577bf9c4c19a17b962",
                        "height": 640,
                        "width": 640
                    },
                    {
                        "url": "https://i.scdn.co/image/ab676161000051745f7af4577bf9c4c19a17b962",
                        "height": 320,
                        "width": 320
                    },
                    {
                        "url": "https://i.scdn.co/image/ab6761610000f1785f7af4577bf9c4c19a17b962",
                        "height": 160,
                        "width": 160
                    }
                ],
                "name": "mediopicky",
                "popularity": 31,
                "type": "artist",
                "uri": "spotify:artist:6vOfSVXZAWvuZliupPw4Wm"
            },
            {
                "external_urls": {
                    "spotify": "https://open.spotify.com/artist/37orxD8Q5PDm53FazTRpP7"
                },
                "followers": {
                    "href": null,
                    "total": 4741
                },
                "genres": [],
                "href": "https://api.spotify.com/v1/artists/37orxD8Q5PDm53FazTRpP7",
                "id": "37orxD8Q5PDm53FazTRpP7",
                "images": [
                    {
                        "url": "https://i.scdn.co/image/ab6761610000e5ebf0a2ed96e007c5ef9fc00066",
                        "height": 640,
                        "width": 640
                    },
                    {
                        "url": "https://i.scdn.co/image/ab67616100005174f0a2ed96e007c5ef9fc00066",
                        "height": 320,
                        "width": 320
                    },
                    {
                        "url": "https://i.scdn.co/image/ab6761610000f178f0a2ed96e007c5ef9fc00066",
                        "height": 160,
                        "width": 160
                    }
                ],
                "name": "Lena Dardelet",
                "popularity": 45,
                "type": "artist",
                "uri": "spotify:artist:37orxD8Q5PDm53FazTRpP7"
            },
            {
                "external_urls": {
                    "spotify": "https://open.spotify.com/artist/3iIgIzm5nwy5y2uuudWKTb"
                },
                "followers": {
                    "href": null,
                    "total": 7112
                },
                "genres": [
                    "latin indie",
                    "latin folk"
                ],
                "href": "https://api.spotify.com/v1/artists/3iIgIzm5nwy5y2uuudWKTb",
                "id": "3iIgIzm5nwy5y2uuudWKTb",
                "images": [
                    {
                        "url": "https://i.scdn.co/image/ab6761610000e5ebd4e6af9381c0d557820232d4",
                        "height": 640,
                        "width": 640
                    },
                    {
                        "url": "https://i.scdn.co/image/ab67616100005174d4e6af9381c0d557820232d4",
                        "height": 320,
                        "width": 320
                    },
                    {
                        "url": "https://i.scdn.co/image/ab6761610000f178d4e6af9381c0d557820232d4",
                        "height": 160,
                        "width": 160
                    }
                ],
                "name": "SNENiE",
                "popularity": 34,
                "type": "artist",
                "uri": "spotify:artist:3iIgIzm5nwy5y2uuudWKTb"
            },
            {
                "external_urls": {
                    "spotify": "https://open.spotify.com/artist/7MX1qcF0L9NKjXkXiLtbAx"
                },
                "followers": {
                    "href": null,
                    "total": 3495
                },
                "genres": [],
                "href": "https://api.spotify.com/v1/artists/7MX1qcF0L9NKjXkXiLtbAx",
                "id": "7MX1qcF0L9NKjXkXiLtbAx",
                "images": [
                    {
                        "url": "https://i.scdn.co/image/ab6761610000e5ebedfbc6b3d9d87827e5fe5b13",
                        "height": 640,
                        "width": 640
                    },
                    {
                        "url": "https://i.scdn.co/image/ab67616100005174edfbc6b3d9d87827e5fe5b13",
                        "height": 320,
                        "width": 320
                    },
                    {
                        "url": "https://i.scdn.co/image/ab6761610000f178edfbc6b3d9d87827e5fe5b13",
                        "height": 160,
                        "width": 160
                    }
                ],
                "name": "La Marimba",
                "popularity": 15,
                "type": "artist",
                "uri": "spotify:artist:7MX1qcF0L9NKjXkXiLtbAx"
            },
            {
                "external_urls": {
                    "spotify": "https://open.spotify.com/artist/73KizolhbyyKC9d9xtK3VT"
                },
                "followers": {
                    "href": null,
                    "total": 3439
                },
                "genres": [
                    "latin indie"
                ],
                "href": "https://api.spotify.com/v1/artists/73KizolhbyyKC9d9xtK3VT",
                "id": "73KizolhbyyKC9d9xtK3VT",
                "images": [
                    {
                        "url": "https://i.scdn.co/image/ab6761610000e5ebf00feab919c4f1e2877dbebc",
                        "height": 640,
                        "width": 640
                    },
                    {
                        "url": "https://i.scdn.co/image/ab67616100005174f00feab919c4f1e2877dbebc",
                        "height": 320,
                        "width": 320
                    },
                    {
                        "url": "https://i.scdn.co/image/ab6761610000f178f00feab919c4f1e2877dbebc",
                        "height": 160,
                        "width": 160
                    }
                ],
                "name": "seye",
                "popularity": 32,
                "type": "artist",
                "uri": "spotify:artist:73KizolhbyyKC9d9xtK3VT"
            },
            {
                "external_urls": {
                    "spotify": "https://open.spotify.com/artist/62iTERZQMpjWggsriHvDnk"
                },
                "followers": {
                    "href": null,
                    "total": 3622
                },
                "genres": [],
                "href": "https://api.spotify.com/v1/artists/62iTERZQMpjWggsriHvDnk",
                "id": "62iTERZQMpjWggsriHvDnk",
                "images": [
                    {
                        "url": "https://i.scdn.co/image/ab6761610000e5eb4bf6ed6ebc4bf8a1bf09b7a5",
                        "height": 640,
                        "width": 640
                    },
                    {
                        "url": "https://i.scdn.co/image/ab676161000051744bf6ed6ebc4bf8a1bf09b7a5",
                        "height": 320,
                        "width": 320
                    },
                    {
                        "url": "https://i.scdn.co/image/ab6761610000f1784bf6ed6ebc4bf8a1bf09b7a5",
                        "height": 160,
                        "width": 160
                    }
                ],
                "name": "NIKÓLA",
                "popularity": 29,
                "type": "artist",
                "uri": "spotify:artist:62iTERZQMpjWggsriHvDnk"
            },
            {
                "external_urls": {
                    "spotify": "https://open.spotify.com/artist/2zSRxKARE1AU9TpTLCQMsu"
                },
                "followers": {
                    "href": null,
                    "total": 1445
                },
                "genres": [],
                "href": "https://api.spotify.com/v1/artists/2zSRxKARE1AU9TpTLCQMsu",
                "id": "2zSRxKARE1AU9TpTLCQMsu",
                "images": [
                    {
                        "url": "https://i.scdn.co/image/ab6761610000e5eb968c13d3e88b31cec880efa5",
                        "height": 640,
                        "width": 640
                    },
                    {
                        "url": "https://i.scdn.co/image/ab67616100005174968c13d3e88b31cec880efa5",
                        "height": 320,
                        "width": 320
                    },
                    {
                        "url": "https://i.scdn.co/image/ab6761610000f178968c13d3e88b31cec880efa5",
                        "height": 160,
                        "width": 160
                    }
                ],
                "name": "Inka",
                "popularity": 23,
                "type": "artist",
                "uri": "spotify:artist:2zSRxKARE1AU9TpTLCQMsu"
            },
            {
                "external_urls": {
                    "spotify": "https://open.spotify.com/artist/5ubD9LH9VUJrpOhXV4UY1t"
                },
                "followers": {
                    "href": null,
                    "total": 378
                },
                "genres": [],
                "href": "https://api.spotify.com/v1/artists/5ubD9LH9VUJrpOhXV4UY1t",
                "id": "5ubD9LH9VUJrpOhXV4UY1t",
                "images": [
                    {
                        "url": "https://i.scdn.co/image/ab67616d0000b273986c711ca209430aca6336c3",
                        "height": 640,
                        "width": 640
                    },
                    {
                        "url": "https://i.scdn.co/image/ab67616d00001e02986c711ca209430aca6336c3",
                        "height": 300,
                        "width": 300
                    },
                    {
                        "url": "https://i.scdn.co/image/ab67616d00004851986c711ca209430aca6336c3",
                        "height": 64,
                        "width": 64
                    }
                ],
                "name": "Joa",
                "popularity": 11,
                "type": "artist",
                "uri": "spotify:artist:5ubD9LH9VUJrpOhXV4UY1t"
            },
            {
                "external_urls": {
                    "spotify": "https://open.spotify.com/artist/2wL6r8w5ci1Me38rB4fU3q"
                },
                "followers": {
                    "href": null,
                    "total": 633
                },
                "genres": [],
                "href": "https://api.spotify.com/v1/artists/2wL6r8w5ci1Me38rB4fU3q",
                "id": "2wL6r8w5ci1Me38rB4fU3q",
                "images": [
                    {
                        "url": "https://i.scdn.co/image/ab6761610000e5eb2b726e19e2064a15e4169023",
                        "height": 640,
                        "width": 640
                    },
                    {
                        "url": "https://i.scdn.co/image/ab676161000051742b726e19e2064a15e4169023",
                        "height": 320,
                        "width": 320
                    },
                    {
                        "url": "https://i.scdn.co/image/ab6761610000f1782b726e19e2064a15e4169023",
                        "height": 160,
                        "width": 160
                    }
                ],
                "name": "Luis Armando",
                "popularity": 11,
                "type": "artist",
                "uri": "spotify:artist:2wL6r8w5ci1Me38rB4fU3q"
            },
            {
                "external_urls": {
                    "spotify": "https://open.spotify.com/artist/4RewpgYznThQsxmM1cf2Wf"
                },
                "followers": {
                    "href": null,
                    "total": 217
                },
                "genres": [],
                "href": "https://api.spotify.com/v1/artists/4RewpgYznThQsxmM1cf2Wf",
                "id": "4RewpgYznThQsxmM1cf2Wf",
                "images": [
                    {
                        "url": "https://i.scdn.co/image/ab67616d0000b273ed2122c6f2d97875c61d43c9",
                        "height": 640,
                        "width": 640
                    },
                    {
                        "url": "https://i.scdn.co/image/ab67616d00001e02ed2122c6f2d97875c61d43c9",
                        "height": 300,
                        "width": 300
                    },
                    {
                        "url": "https://i.scdn.co/image/ab67616d00004851ed2122c6f2d97875c61d43c9",
                        "height": 64,
                        "width": 64
                    }
                ],
                "name": "bnto",
                "popularity": 15,
                "type": "artist",
                "uri": "spotify:artist:4RewpgYznThQsxmM1cf2Wf"
            },
            {
                "external_urls": {
                    "spotify": "https://open.spotify.com/artist/5lIAS6OUrn6BliMJL94A3E"
                },
                "followers": {
                    "href": null,
                    "total": 51
                },
                "genres": [
                    "merengue"
                ],
                "href": "https://api.spotify.com/v1/artists/5lIAS6OUrn6BliMJL94A3E",
                "id": "5lIAS6OUrn6BliMJL94A3E",
                "images": [
                    {
                        "url": "https://i.scdn.co/image/ab6761610000e5eb9d5a95fc4093fe07fbc83ccc",
                        "height": 640,
                        "width": 640
                    },
                    {
                        "url": "https://i.scdn.co/image/ab676161000051749d5a95fc4093fe07fbc83ccc",
                        "height": 320,
                        "width": 320
                    },
                    {
                        "url": "https://i.scdn.co/image/ab6761610000f1789d5a95fc4093fe07fbc83ccc",
                        "height": 160,
                        "width": 160
                    }
                ],
                "name": "Luc Days",
                "popularity": 9,
                "type": "artist",
                "uri": "spotify:artist:5lIAS6OUrn6BliMJL94A3E"
            }
        ]
    }
}