{
    "href": "https://api.spotify.com/v1/me/top/artists?locale=en-US,en;q%3D0.9",
    "limit": 20,
    "next": "https://api.spotify.com/v1/me/top/artists?offset=20&limit=20&locale=en-US,en;q%3D0.9",
    "offset": 0,
    "previous": null,
    "total": 285,
    "items": [
        {
            "external_urls": {
                "spotify": "https://open.spotify.com/artist/2YZyLoL8N0Wb9xBt1NhZWg"
            },
            "followers": {
                "href": null,
                "total": 43198695
            },
            "genres": [
                "hip hop",
                "west coast hip hop"
            ],
            "href": "https://api.spotify.com/v1/artists/2YZyLoL8N0Wb9xBt1NhZWg",
            "id": "2YZyLoL8N0Wb9xBt1NhZWg",
            "images": [
                {
                    "url": "https://i.scdn.co/image/ab6761610000e5eb39ba6dcd4355c03de0b50918",
                    "height": 640,
                    "width": 640
                },
                {
                    "url": "https://i.scdn.co/image/ab6761610000517439ba6dcd4355c03de0b50918",
                    "height": 320,
                    "width": 320
                },
                {
                    "url": "https://i.scdn.co/image/ab6761610000f17839ba6dcd4355c03de0b50918",
                    "height": 160,
                    "width": 160
                }
            ],
            "name": "Kendrick Lamar",
            "popularity": 94,
            "type": "artist",
            "uri": "spotify:artist:2YZyLoL8N0Wb9xBt1NhZWg"
        },
        {
            "external_urls": {
                "spotify": "https://open.spotify.com/artist/3zmfs9cQwzJl575W1ZYXeT"
            },
            "followers": {
                "href": null,
                "total": 2266556
            },
            "genres": [
                "bedroom pop",
                "indie pop"
            ],
            "href": "https://api.spotify.com/v1/artists/3zmfs9cQwzJl575W1ZYXeT",
            "id": "3zmfs9cQwzJl575W1ZYXeT",
            "images": [
                {
                    "url": "https://i.scdn.co/image/ab6761610000e5ebfd30ebd7e80dad6b2383aab0",
                    "height": 640,
                    "width": 640
                },
                {
                    "url": "https://i.scdn.co/image/ab67616100005174fd30ebd7e80dad6b2383aab0",
                    "height": 320,
                    "width": 320
                },
                {
                    "url": "https://i.scdn.co/image/ab6761610000f178fd30ebd7e80dad6b2383aab0",
                    "height": 160,
                    "width": 160
                }
            ],
            "name": "Men I Trust",
            "popularity": 73,
            "type": "artist",
            "uri": "spotify:artist:3zmfs9cQwzJl575W1ZYXeT"
        },
        {
            "external_urls": {
                "spotify": "https://open.spotify.com/artist/4kLvhMAuCloLxoP1aVM7Lr"
            },
            "followers": {
                "href": null,
                "total": 420005
            },
            "genres": [
                "soundtrack"
            ],
            "href": "https://api.spotify.com/v1/artists/4kLvhMAuCloLxoP1aVM7Lr",
            "id": "4kLvhMAuCloLxoP1aVM7Lr",
            "images": [
                {
                    "url": "https://i.scdn.co/image/ab6761610000e5eb9945209ac13720afd7eea2e3",
                    "height": 640,
                    "width": 640
                },
                {
                    "url": "https://i.scdn.co/image/ab676161000051749945209ac13720afd7eea2e3",
                    "height": 320,
                    "width": 320
                },
                {
                    "url": "https://i.scdn.co/image/ab6761610000f1789945209ac13720afd7eea2e3",
                    "height": 160,
                    "width": 160
                }
            ],
            "name": "Michael Giacchino",
            "popularity": 68,
            "type": "artist",
            "uri": "spotify:artist:4kLvhMAuCloLxoP1aVM7Lr"
        },
        {
            "external_urls": {
                "spotify": "https://open.spotify.com/artist/1vCWHaC5f2uS3yhpwWbIA6"
            },
            "followers": {
                "href": null,
                "total": 23466283
            },
            "genres": [
                "edm"
            ],
            "href": "https://api.spotify.com/v1/artists/1vCWHaC5f2uS3yhpwWbIA6",
            "id": "1vCWHaC5f2uS3yhpwWbIA6",
            "images": [
                {
                    "url": "https://i.scdn.co/image/ab6761610000e5ebae07171f989fb39736674113",
                    "height": 640,
                    "width": 640
                },
                {
                    "url": "https://i.scdn.co/image/ab67616100005174ae07171f989fb39736674113",
                    "height": 320,
                    "width": 320
                },
                {
                    "url": "https://i.scdn.co/image/ab6761610000f178ae07171f989fb39736674113",
                    "height": 160,
                    "width": 160
                }
            ],
            "name": "Avicii",
            "popularity": 84,
            "type": "artist",
            "uri": "spotify:artist:1vCWHaC5f2uS3yhpwWbIA6"
        },
        {
            "external_urls": {
                "spotify": "https://open.spotify.com/artist/1grN0519h2zYqpRtYbDZAl"
            },
            "followers": {
                "href": null,
                "total": 539771
            },
            "genres": [],
            "href": "https://api.spotify.com/v1/artists/1grN0519h2zYqpRtYbDZAl",
            "id": "1grN0519h2zYqpRtYbDZAl",
            "images": [
                {
                    "url": "https://i.scdn.co/image/ab6761610000e5eb1c0b980410ff1016569fb371",
                    "height": 640,
                    "width": 640
                },
                {
                    "url": "https://i.scdn.co/image/ab676161000051741c0b980410ff1016569fb371",
                    "height": 320,
                    "width": 320
                },
                {
                    "url": "https://i.scdn.co/image/ab6761610000f1781c0b980410ff1016569fb371",
                    "height": 160,
                    "width": 160
                }
            ],
            "name": "Larry June",
            "popularity": 72,
            "type": "artist",
            "uri": "spotify:artist:1grN0519h2zYqpRtYbDZAl"
        },
        {
            "external_urls": {
                "spotify": "https://open.spotify.com/artist/68kEuyFKyqrdQQLLsmiatm"
            },
            "followers": {
                "href": null,
                "total": 2018522
            },
            "genres": [],
            "href": "https://api.spotify.com/v1/artists/68kEuyFKyqrdQQLLsmiatm",
            "id": "68kEuyFKyqrdQQLLsmiatm",
            "images": [
                {
                    "url": "https://i.scdn.co/image/ab6761610000e5eb53054f8bc7e0153daefe12cc",
                    "height": 640,
                    "width": 640
                },
                {
                    "url": "https://i.scdn.co/image/ab6761610000517453054f8bc7e0153daefe12cc",
                    "height": 320,
                    "width": 320
                },
                {
                    "url": "https://i.scdn.co/image/ab6761610000f17853054f8bc7e0153daefe12cc",
                    "height": 160,
                    "width": 160
                }
            ],
            "name": "Vince Staples",
            "popularity": 69,
            "type": "artist",
            "uri": "spotify:artist:68kEuyFKyqrdQQLLsmiatm"
        },
        {
            "external_urls": {
                "spotify": "https://open.spotify.com/artist/2PqkSKtPxs112KDZdRXGO2"
            },
            "followers": {
                "href": null,
                "total": 116407
            },
            "genres": [
                "soundtrack"
            ],
            "href": "https://api.spotify.com/v1/artists/2PqkSKtPxs112KDZdRXGO2",
            "id": "2PqkSKtPxs112KDZdRXGO2",
            "images": [
                {
                    "url": "https://i.scdn.co/image/ab6761610000e5ebe17351c781f0cd9ae4b6442e",
                    "height": 640,
                    "width": 640
                },
                {
                    "url": "https://i.scdn.co/image/ab67616100005174e17351c781f0cd9ae4b6442e",
                    "height": 320,
                    "width": 320
                },
                {
                    "url": "https://i.scdn.co/image/ab6761610000f178e17351c781f0cd9ae4b6442e",
                    "height": 160,
                    "width": 160
                }
            ],
            "name": "ConcernedApe",
            "popularity": 61,
            "type": "artist",
            "uri": "spotify:artist:2PqkSKtPxs112KDZdRXGO2"
        },
        {
            "external_urls": {
                "spotify": "https://open.spotify.com/artist/1QOmebWGB6FdFtW7Bo3F0W"
            },
            "followers": {
                "href": null,
                "total": 5427708
            },
            "genres": [
                "argentine rock",
                "latin rock",
                "rock en español",
                "latin alternative"
            ],
            "href": "https://api.spotify.com/v1/artists/1QOmebWGB6FdFtW7Bo3F0W",
            "id": "1QOmebWGB6FdFtW7Bo3F0W",
            "images": [
                {
                    "url": "https://i.scdn.co/image/ab6761610000e5ebee0456d8afc4c63dff458587",
                    "height": 640,
                    "width": 640
                },
                {
                    "url": "https://i.scdn.co/image/ab67616100005174ee0456d8afc4c63dff458587",
                    "height": 320,
                    "width": 320
                },
                {
                    "url": "https://i.scdn.co/image/ab6761610000f178ee0456d8afc4c63dff458587",
                    "height": 160,
                    "width": 160
                }
            ],
            "name": "Gustavo Cerati",
            "popularity": 74,
            "type": "artist",
            "uri": "spotify:artist:1QOmebWGB6FdFtW7Bo3F0W"
        },
        {
            "external_urls": {
                "spotify": "https://open.spotify.com/artist/47zz7sob9NUcODy0BTDvKx"
            },
            "followers": {
                "href": null,
                "total": 4918342
            },
            "genres": [],
            "href": "https://api.spotify.com/v1/artists/47zz7sob9NUcODy0BTDvKx",
            "id": "47zz7sob9NUcODy0BTDvKx",
            "images": [
                {
                    "url": "https://i.scdn.co/image/ab6761610000e5eb92883b0e094a36d2f43ad284",
                    "height": 640,
                    "width": 640
                },
                {
                    "url": "https://i.scdn.co/image/ab6761610000517492883b0e094a36d2f43ad284",
                    "height": 320,
                    "width": 320
                },
                {
                    "url": "https://i.scdn.co/image/ab6761610000f17892883b0e094a36d2f43ad284",
                    "height": 160,
                    "width": 160
                }
            ],
            "name": "Sade",
            "popularity": 80,
            "type": "artist",
            "uri": "spotify:artist:47zz7sob9NUcODy0BTDvKx"
        },
        {
            "external_urls": {
                "spotify": "https://open.spotify.com/artist/5j4HeCoUlzhfWtjAfM1acR"
            },
            "followers": {
                "href": null,
                "total": 3812068
            },
            "genres": [
                "french pop"
            ],
            "href": "https://api.spotify.com/v1/artists/5j4HeCoUlzhfWtjAfM1acR",
            "id": "5j4HeCoUlzhfWtjAfM1acR",
            "images": [
                {
                    "url": "https://i.scdn.co/image/ab6761610000e5ebcc129f1c9b5047760d66aae2",
                    "height": 640,
                    "width": 640
                },
                {
                    "url": "https://i.scdn.co/image/ab67616100005174cc129f1c9b5047760d66aae2",
                    "height": 320,
                    "width": 320
                },
                {
                    "url": "https://i.scdn.co/image/ab6761610000f178cc129f1c9b5047760d66aae2",
                    "height": 160,
                    "width": 160
                }
            ],
            "name": "Stromae",
            "popularity": 76,
            "type": "artist",
            "uri": "spotify:artist:5j4HeCoUlzhfWtjAfM1acR"
        },
        {
            "external_urls": {
                "spotify": "https://open.spotify.com/artist/6CY7WNJfd5uZclcS3WeEjx"
            },
            "followers": {
                "href": null,
                "total": 199271
            },
            "genres": [
                "soundtrack"
            ],
            "href": "https://api.spotify.com/v1/artists/6CY7WNJfd5uZclcS3WeEjx",
            "id": "6CY7WNJfd5uZclcS3WeEjx",
            "images": [
                {
                    "url": "https://i.scdn.co/image/ab6761610000e5eb4d6a491aecf0e36870aa3a21",
                    "height": 640,
                    "width": 640
                },
                {
                    "url": "https://i.scdn.co/image/ab676161000051744d6a491aecf0e36870aa3a21",
                    "height": 320,
                    "width": 320
                },
                {
                    "url": "https://i.scdn.co/image/ab6761610000f1784d6a491aecf0e36870aa3a21",
                    "height": 160,
                    "width": 160
                }
            ],
            "name": "Yu-Peng Chen",
            "popularity": 63,
            "type": "artist",
            "uri": "spotify:artist:6CY7WNJfd5uZclcS3WeEjx"
        },
        {
            "external_urls": {
                "spotify": "https://open.spotify.com/artist/3U3zr5PCRa9ty74uN46iBa"
            },
            "followers": {
                "href": null,
                "total": 163986
            },
            "genres": [
                "bebop",
                "anime"
            ],
            "href": "https://api.spotify.com/v1/artists/3U3zr5PCRa9ty74uN46iBa",
            "id": "3U3zr5PCRa9ty74uN46iBa",
            "images": [
                {
                    "url": "https://i.scdn.co/image/ab67616d0000b273e90a54d6e31d9ff3f1d566fa",
                    "height": 640,
                    "width": 640
                },
                {
                    "url": "https://i.scdn.co/image/ab67616d00001e02e90a54d6e31d9ff3f1d566fa",
                    "height": 300,
                    "width": 300
                },
                {
                    "url": "https://i.scdn.co/image/ab67616d00004851e90a54d6e31d9ff3f1d566fa",
                    "height": 64,
                    "width": 64
                }
            ],
            "name": "SEATBELTS",
            "popularity": 56,
            "type": "artist",
            "uri": "spotify:artist:3U3zr5PCRa9ty74uN46iBa"
        },
        {
            "external_urls": {
                "spotify": "https://open.spotify.com/artist/6GI52t8N5F02MxU0g5U69P"
            },
            "followers": {
                "href": null,
                "total": 3739514
            },
            "genres": [],
            "href": "https://api.spotify.com/v1/artists/6GI52t8N5F02MxU0g5U69P",
            "id": "6GI52t8N5F02MxU0g5U69P",
            "images": [
                {
                    "url": "https://i.scdn.co/image/ab6761610000e5eb09882b1b7b33732abd60fc38",
                    "height": 640,
                    "width": 640
                },
                {
                    "url": "https://i.scdn.co/image/ab6761610000517409882b1b7b33732abd60fc38",
                    "height": 320,
                    "width": 320
                },
                {
                    "url": "https://i.scdn.co/image/ab6761610000f17809882b1b7b33732abd60fc38",
                    "height": 160,
                    "width": 160
                }
            ],
            "name": "Santana",
            "popularity": 75,
            "type": "artist",
            "uri": "spotify:artist:6GI52t8N5F02MxU0g5U69P"
        },
        {
            "external_urls": {
                "spotify": "https://open.spotify.com/artist/3fMbdgg4jU18AjLCKBhRSm"
            },
            "followers": {
                "href": null,
                "total": 36498070
            },
            "genres": [],
            "href": "https://api.spotify.com/v1/artists/3fMbdgg4jU18AjLCKBhRSm",
            "id": "3fMbdgg4jU18AjLCKBhRSm",
            "images": [
                {
                    "url": "https://i.scdn.co/image/ab6761610000e5eb997cc9a4aec335d46c9481fd",
                    "height": 640,
                    "width": 640
                },
                {
                    "url": "https://i.scdn.co/image/ab67616100005174997cc9a4aec335d46c9481fd",
                    "height": 320,
                    "width": 320
                },
                {
                    "url": "https://i.scdn.co/image/ab6761610000f178997cc9a4aec335d46c9481fd",
                    "height": 160,
                    "width": 160
                }
            ],
            "name": "Michael Jackson",
            "popularity": 87,
            "type": "artist",
            "uri": "spotify:artist:3fMbdgg4jU18AjLCKBhRSm"
        },
        {
            "external_urls": {
                "spotify": "https://open.spotify.com/artist/0k17h0D3J5VfsdmQ1iZtE9"
            },
            "followers": {
                "href": null,
                "total": 22379179
            },
            "genres": [
                "progressive rock",
                "psychedelic rock",
                "classic rock",
                "art rock",
                "rock"
            ],
            "href": "https://api.spotify.com/v1/artists/0k17h0D3J5VfsdmQ1iZtE9",
            "id": "0k17h0D3J5VfsdmQ1iZtE9",
            "images": [
                {
                    "url": "https://i.scdn.co/image/e69f71e2be4b67b82af90fb8e9d805715e0684fa",
                    "height": 977,
                    "width": 1000
                },
                {
                    "url": "https://i.scdn.co/image/d011c95081cd9a329e506abd7ded47535d524a07",
                    "height": 625,
                    "width": 640
                },
                {
                    "url": "https://i.scdn.co/image/f0a39a8a196a87a7236bdcf8a8708f6d5d3547cc",
                    "height": 195,
                    "width": 200
                },
                {
                    "url": "https://i.scdn.co/image/ec1fb7127168dbaa962404031409c5a293b95ec6",
                    "height": 63,
                    "width": 64
                }
            ],
            "name": "Pink Floyd",
            "popularity": 83,
            "type": "artist",
            "uri": "spotify:artist:0k17h0D3J5VfsdmQ1iZtE9"
        },
        {
            "external_urls": {
                "spotify": "https://open.spotify.com/artist/5K4W6rqBFWDnAN6FQUkS6x"
            },
            "followers": {
                "href": null,
                "total": 30521772
            },
            "genres": [
                "rap"
            ],
            "href": "https://api.spotify.com/v1/artists/5K4W6rqBFWDnAN6FQUkS6x",
            "id": "5K4W6rqBFWDnAN6FQUkS6x",
            "images": [
                {
                    "url": "https://i.scdn.co/image/ab6761610000e5eb6e835a500e791bf9c27a422a",
                    "height": 640,
                    "width": 640
                },
                {
                    "url": "https://i.scdn.co/image/ab676161000051746e835a500e791bf9c27a422a",
                    "height": 320,
                    "width": 320
                },
                {
                    "url": "https://i.scdn.co/image/ab6761610000f1786e835a500e791bf9c27a422a",
                    "height": 160,
                    "width": 160
                }
            ],
            "name": "Kanye West",
            "popularity": 93,
            "type": "artist",
            "uri": "spotify:artist:5K4W6rqBFWDnAN6FQUkS6x"
        },
        {
            "external_urls": {
                "spotify": "https://open.spotify.com/artist/3aQeKQSyrW4qWr35idm0cy"
            },
            "followers": {
                "href": null,
                "total": 5627963
            },
            "genres": [],
            "href": "https://api.spotify.com/v1/artists/3aQeKQSyrW4qWr35idm0cy",
            "id": "3aQeKQSyrW4qWr35idm0cy",
            "images": [
                {
                    "url": "https://i.scdn.co/image/ab6761610000e5eb99a856ab4ab752d85e50a750",
                    "height": 640,
                    "width": 640
                },
                {
                    "url": "https://i.scdn.co/image/ab6761610000517499a856ab4ab752d85e50a750",
                    "height": 320,
                    "width": 320
                },
                {
                    "url": "https://i.scdn.co/image/ab6761610000f17899a856ab4ab752d85e50a750",
                    "height": 160,
                    "width": 160
                }
            ],
            "name": "T-Pain",
            "popularity": 83,
            "type": "artist",
            "uri": "spotify:artist:3aQeKQSyrW4qWr35idm0cy"
        },
        {
            "external_urls": {
                "spotify": "https://open.spotify.com/artist/2h93pZq0e7k5yf4dywlkpM"
            },
            "followers": {
                "href": null,
                "total": 19638850
            },
            "genres": [],
            "href": "https://api.spotify.com/v1/artists/2h93pZq0e7k5yf4dywlkpM",
            "id": "2h93pZq0e7k5yf4dywlkpM",
            "images": [
                {
                    "url": "https://i.scdn.co/image/ab6761610000e5ebee3123e593174208f9754fab",
                    "height": 640,
                    "width": 640
                },
                {
                    "url": "https://i.scdn.co/image/ab67616100005174ee3123e593174208f9754fab",
                    "height": 320,
                    "width": 320
                },
                {
                    "url": "https://i.scdn.co/image/ab6761610000f178ee3123e593174208f9754fab",
                    "height": 160,
                    "width": 160
                }
            ],
            "name": "Frank Ocean",
            "popularity": 88,
            "type": "artist",
            "uri": "spotify:artist:2h93pZq0e7k5yf4dywlkpM"
        },
        {
            "external_urls": {
                "spotify": "https://open.spotify.com/artist/7nzSoJISlVJsn7O0yTeMOB"
            },
            "followers": {
                "href": null,
                "total": 1452116
            },
            "genres": [
                "japanese classical",
                "anime"
            ],
            "href": "https://api.spotify.com/v1/artists/7nzSoJISlVJsn7O0yTeMOB",
            "id": "7nzSoJISlVJsn7O0yTeMOB",
            "images": [
                {
                    "url": "https://i.scdn.co/image/ab6761610000e5eb255e3fb8af57399bc9975c61",
                    "height": 640,
                    "width": 640
                },
                {
                    "url": "https://i.scdn.co/image/ab67616100005174255e3fb8af57399bc9975c61",
                    "height": 320,
                    "width": 320
                },
                {
                    "url": "https://i.scdn.co/image/ab6761610000f178255e3fb8af57399bc9975c61",
                    "height": 160,
                    "width": 160
                }
            ],
            "name": "Joe Hisaishi",
            "popularity": 72,
            "type": "artist",
            "uri": "spotify:artist:7nzSoJISlVJsn7O0yTeMOB"
        },
        {
            "external_urls": {
                "spotify": "https://open.spotify.com/artist/4V8LLVI7PbaPR0K2TGSxFF"
            },
            "followers": {
                "href": null,
                "total": 23394763
            },
            "genres": [],
            "href": "https://api.spotify.com/v1/artists/4V8LLVI7PbaPR0K2TGSxFF",
            "id": "4V8LLVI7PbaPR0K2TGSxFF",
            "images": [
                {
                    "url": "https://i.scdn.co/image/ab6761610000e5ebdf2728294ff77dd11eeb18fb",
                    "height": 640,
                    "width": 640
                },
                {
                    "url": "https://i.scdn.co/image/ab67616100005174df2728294ff77dd11eeb18fb",
                    "height": 320,
                    "width": 320
                },
                {
                    "url": "https://i.scdn.co/image/ab6761610000f178df2728294ff77dd11eeb18fb",
                    "height": 160,
                    "width": 160
                }
            ],
            "name": "Tyler, The Creator",
            "popularity": 93,
            "type": "artist",
            "uri": "spotify:artist:4V8LLVI7PbaPR0K2TGSxFF"
        }
    ]
}